﻿# Separate command and description by tab or at least two space
# $(Variable Name)[Type]	

# $(String)[s]
# $(Name, val1=Choice1|val2=Choice2)[c] 
# $(Name, val1|val2=Choice2)[c] 
# $(Integer)[i] 
# $(Decimal)[d]
# $(Bytes)[b]

# $(Url)[u]
# $(Filepath)[f]



 AT+GMR=?	Request TA revision identification of software release